…
The `get_choices()` function extracts the choices for all or for
specified `select_one` and `select_multiple` types of questions. The can
be used as follows:

``` r
## Load library
library(formstools)

## Extract all choices for all select_one and select_multiple types of questions
## in the example XLSForm ghana_community_form.xlsx
get_choices(
  xlsform = system.file("extdata", "ghana_community_form.xlsx", package = "formstools")
)
#> # A tibble: 722 × 3
#>    list_name  name              `label::English (en)`             
#>    <chr>      <chr>             <chr>                             
#>  1 yes_no     1                 Yes                               
#>  2 yes_no     0                 No                                
#>  3 yes_no_idk 1                 Yes                               
#>  4 yes_no_idk 0                 No                                
#>  5 yes_no_idk idk               I don't know                      
#>  6 gender     female            Female                            
#>  7 gender     male              Male                              
#>  8 gender     non_binary        Non-Binary/Prefer to self describe
#>  9 gender     Prefer_not_to_say Prefer not to say                 
#> 10 pray       mosque            Mosque                            
#> # … with 712 more rows
```
…
